Data Analytics in Healthcare - Introduction to Data Wrangling
…
Since all the values look correct, we check the missing value across each Country for the Life.Exp column:

temp_df <-data_long %>%
  group_by(Country.Name) %>%
  summarise(Missing_Life_Exp = sum(is.na(Life.Exp))) 

temp_df  

# A tibble: 266 × 2
   Country.Name                Missing_Life_Exp
   <chr>                                  <int>
 1 Afghanistan                                0
 2 Africa Eastern and Southern                0
 3 Africa Western and Central                 0
 4 Albania                                    0
 5 Algeria                                    0
 6 American Samoa                            62
 7 Andorra                                   62
 8 Angola                                     0
 9 Antigua and Barbuda                        0
10 Arab World                                 0
# ℹ 256 more rows
…
Here we remove all rows with missing Life.Exp as they are not important for our analysis. na.omit is using baseR.

data_long <- na.omit(data_long) 
length(unique(data_long$Country.Name)) 

[1] 260

length(unique(data_long$Year)) 

[1] 62

data_long 

# A tibble: 15,866 × 3
   Country.Name          Year Life.Exp
   <chr>                <int>    <dbl>
 1 Hong Kong SAR, China  1960     65.9
 2 Hong Kong SAR, China  1961     66.6
 3 Hong Kong SAR, China  1962     67.0
 4 Hong Kong SAR, China  1963     67.7
 5 Hong Kong SAR, China  1964     68.4
 6 Hong Kong SAR, China  1965     69.3
 7 Hong Kong SAR, China  1966     69.5
 8 Hong Kong SAR, China  1967     69.9
 9 Hong Kong SAR, China  1968     70.4
10 Hong Kong SAR, China  1969     70.6
# ℹ 15,856 more rows
…
Tukey Fence Method

Here we use Tukey Outlier Detection method to identify the countries. We use the Tukey fence method to help to identify the countries with outliers.

Q1Q3Quantiles <- data_long %>%
  group_by(Country.Name) %>%
  summarize(Q1 = quantile(Life.Exp, 0.25, na.rm = TRUE),
            Q3 = quantile(Life.Exp, 0.75, na.rm = TRUE),
            IQR = IQR(Life.Exp, na.rm = TRUE)) %>%
  mutate(Lower_Bound = Q1 - 1.5 * IQR,
         Upper_Bound = Q3 + 1.5 * IQR)   

Q1Q3Quantiles  

# A tibble: 260 × 6
   Country.Name                   Q1    Q3   IQR Lower_Bound Upper_Bound
   <chr>                       <dbl> <dbl> <dbl>       <dbl>       <dbl>
 1 Afghanistan                  38.3  58.6 20.4         7.72        89.1
 2 Africa Eastern and Southern  47.9  54.9  7.01       37.4         65.4
 3 Africa Western and Central   44.4  52.7  8.31       31.9         65.2
 4 Albania                      68.4  76.6  8.16       56.2         88.8
 5 Algeria                      47.2  72.3 25.0         9.66       110. 
 6 Angola                       41.2  52.2 11.0        24.8         68.6
 7 Antigua and Barbuda          72.1  75.8  3.74       66.5         81.4
 8 Arab World                   53.8  68.5 14.7        31.8         90.5
 9 Argentina                    67.1  75.1  7.99       55.1         87.1
10 Armenia                      64.9  71.9  7.08       54.2         82.6
# ℹ 250 more rows
…
Next we check the summary statistics for the data across all countries. We again use group_by and summarize functions in dplyr. We can then use the summary statistics table to check with domain experts on the validity of the data.

country_summary_stats <- data_long %>%   
  group_by(Country.Name) %>%   
  summarize(Mean = mean(Life.Exp, na.rm = TRUE),    
            Median = median(Life.Exp, na.rm = TRUE),     
            SD = sd(Life.Exp, na.rm = TRUE),     
            Min = min(Life.Exp, na.rm = TRUE),     
            Max = max(Life.Exp, na.rm = TRUE),     
            Count = n(),     
            Missing = sum(is.na(Life.Exp)))  

print(country_summary_stats) 

# A tibble: 260 × 8
   Country.Name                 Mean Median    SD   Min   Max Count Missing
   <chr>                       <dbl>  <dbl> <dbl> <dbl> <dbl> <int>   <int>
 1 Afghanistan                  47.9   46.3 10.8   32.5  63.6    62       0
 2 Africa Eastern and Southern  51.9   50.3  5.66  44.1  63.8    62       0
 3 Africa Western and Central   48.3   48.7  5.72  37.8  57.6    62       0
 4 Albania                      71.5   73.3  6.58  54.4  79.3    62       0
 5 Algeria                      61.4   67.4 12.9   39.3  76.5    62       0
 6 Angola                       46.7   42.8  7.92  37.3  62.4    62       0
 7 Antigua and Barbuda          73.2   73.5  4.11  61.6  78.8    62       0
 8 Arab World                   61.1   63.1  8.41  45.0  71.8    62       0
 9 Argentina                    71.1   72.1  4.37  64.0  77.3    62       0
10 Armenia                      68.3   68.7  4.41  53.9  75.4    62       0
# ℹ 250 more rows
…
